 1.33
  1.32
  1.44
  1.27
  1.32
  1.27
  1.32
  1.32
  1.37
  1.35
  1.35
  1.36
  1.33
  1.39
  1.41
  1.33
  1.31
  1.36
  1.32
  1.36
  1.34
  1.40
  1.35
  1.28
  1.29
  1.36
  1.30
  1.36
  1.37
  1.41
  1.34
  1.35
  1.27
  1.36
  1.37
  1.31
  1.46
  1.34
  1.37
  1.31
  1.28
  1.32
  1.29
  1.31
  1.36
  1.36
  1.33
  1.35
  1.39
  1.32
  1.34
  1.38
  1.31
  1.32
  1.35
  1.39
  1.32
  1.31
  1.29
  1.32
  1.34
  1.22
  1.34
  1.41
  1.29
  1.30
  1.34
  1.31
  1.33
  1.33
  1.39
  1.27
  1.30
  1.26
  1.23
  1.26
  1.28
  1.30
  1.26
  1.27
  1.23
  1.27
  1.24
  1.25
  1.31
  1.22
  1.24
  1.37
  1.25
  1.24
  1.29
  1.25
  1.33
  1.28
  1.29
  1.40
  1.32
  1.33
  1.26
  1.27
  1.28
  1.31
  1.32
  1.29
  1.35
  1.33
  1.31
  1.37
  1.35
  1.34
  1.30
  1.33
  1.33
  1.29
  1.34
  1.32
  1.29
  1.33
  1.36
  1.33
  1.32
  1.35
  1.42
  1.33
  1.36
  1.27
  1.29
  1.33
  1.35
  1.38
  1.27
  1.32
  1.32
  1.38
  1.34
  1.33
  1.29
  1.31
  1.37
  1.42
  1.39
  1.43
  1.45
  1.41
  1.40
  1.35
  1.37
  1.25
  1.29
  1.40
  1.37
  1.28
  1.41
  1.29
  1.27
  1.33
  1.35
  1.36
  1.31
  1.29
  1.41
  1.31
  1.40
  1.37
  1.36
  1.28
  1.32
  1.33
  1.34
  1.37
  1.42
  1.35
  1.37
  1.48
  1.37
  1.35
  1.35
  1.40
  1.33
  1.37
  1.33
  1.40
  1.36
  1.43
  1.36
  1.33
  1.27
  1.30
  1.30
  1.33
  1.38
  1.27
  1.34
  1.40
  1.35
  1.35
  1.31
  1.38
  1.33
  1.37
  1.39
  1.31
  1.33
  1.36
  1.36
  1.35
  1.26
  1.36
  1.34
  1.35
  1.31
  1.37
  1.35
  1.45
  1.33
  1.39
  1.36
  1.27
  1.33
  1.19
  1.28
  1.23
  1.27
  1.25
  1.25
  1.27
  1.31
  1.30
  1.28
  1.33
  1.30
  1.29
  1.25
  1.37
  1.28
  1.22
  1.29
  1.27
  1.19
  1.23
  1.28
  1.27
  1.30
  1.36
  1.27
  1.28
  1.27
  1.25
  1.28
  1.25
  1.28
  1.25
  1.42
  1.29
  1.33
  1.26
  1.32
  1.27
  1.36
  1.32
  1.23
  1.31
  1.27
  1.29
  1.29
  1.27
  1.27
  1.29
  1.29
  1.21
  1.21
  1.31
  1.30
  1.26
  1.33
  1.35
  1.40
  1.23
  1.36
  1.33
  1.36
  1.36
  1.30
  1.28
  1.35
  1.33
  1.37
  1.33
  1.43
  1.33
  1.37
  1.33
  1.33
  1.33
  1.36
  1.36
  1.39
  1.35
  1.45
  1.38
  1.39
  1.32
  1.48
  1.37
  1.38
  1.40
  1.40
  1.40
  1.43
  1.26
  1.31
  1.30
  1.36
  1.38
  1.41
  1.34
  1.37
  1.30
  1.34
  1.34
  1.32
  1.41
  1.36
  1.37
  1.44
  1.43
  1.47
  1.45
  1.41
  1.50
  1.39
  1.42
  1.41
  1.16
  1.16
  1.11
  1.13
  1.11
  1.12
  1.15
  1.12
  1.15
  1.14
  1.17
  1.11
  1.16
  1.18
  1.18
  1.14
  1.17
  1.14
  1.19
  1.14
  1.20
  1.15
  1.19
  1.16
  1.14
  1.17
  1.15
  1.17
  1.18
  1.18
  1.14
  1.15
  1.19
  1.14
  1.21
  1.14
  1.14
  1.22
  1.15
  1.18
  1.14
  1.16
  1.20
  1.26
  1.14
  1.15
  1.14
  1.13
  1.18
  1.19
  1.16
  1.12
  1.17
  1.19
  1.14
  1.15
  1.14
  1.18
  1.15
  1.18
  1.20
  1.15
  1.17
  1.15
  1.21
  1.13
  1.15
  1.24
  1.17
  1.19
  1.16
  1.13
  1.20
  1.17
  1.15
  1.16
  1.21
  1.22
  1.19
  1.15
  1.15
  1.16
  1.16
  1.16
  1.19
  1.15
  1.18
  1.23
  1.19
  1.18
  1.17
  1.14
  1.15
  1.18
  1.16
  1.17
  1.20
  1.19
  1.16
  1.18
  1.16
  1.16
  1.20
  1.21
  1.19
  1.19
  1.18
  1.13
  1.22
  1.16
  1.15
  1.14
  1.20
  1.15
  1.14
  1.13
  1.11
  1.15
  1.16
  1.17
  1.15
  1.14
  1.16
  1.16
  1.16
  1.16
  1.16
  1.16
  1.13
  1.12
  1.16
  1.17
  1.14
  1.14
  1.21
  1.16
  1.14
  1.20
  1.15
  1.17
  1.17
  1.13
  1.15
  1.16
  1.15
  1.13
  1.16
  1.14
  1.15
  1.15
  1.10
  1.11
  1.15
  1.13
  1.14
  1.15
  1.11
  1.10
  1.07
  1.09
  1.06
  1.14
  1.12
  1.10
  1.49
  1.14
  1.08
  1.51
  1.11
  1.11
  1.14
  1.10
  1.09
  1.11
  1.12
  1.18
  1.11
  1.04
  1.50
  1.08
  1.07
  1.13
  1.10
  1.09
  1.10
  1.14
  1.10
  1.08
  1.10
  1.10
  1.11
  1.09
  1.09
  1.04
  1.08
  1.10
  1.09
  1.24
  1.14
  1.13
  1.11
  1.12
  1.52
  1.11
  1.11
  1.10
  1.09
  1.52
  1.12
  1.17
  1.09
  1.10
  1.11
  1.09
  1.12
  1.08
  1.08
  1.47
  1.18
  1.15
  1.11
  1.11
  1.50
  1.09
  1.11
  1.09
  1.08
  1.08
  1.08
  1.05
  1.17
  1.12
  1.14
  1.14
  1.16
  1.14
  1.15
  1.08
  1.15
  1.08
  1.15
  1.14
  1.12
  1.13
  1.12
  1.13
  1.18
  1.14
  1.12
  1.13
  1.12
  1.14
  1.18
  1.18
  1.14
  1.16
  1.13
  1.11
  1.13
  1.14
  1.13
  1.13
  1.13
  1.13
  1.13
  1.17
  1.15
  1.16
  1.20
  1.20
  1.22
  1.15
  1.18
  1.15
  1.15
  1.15
  1.12
  1.14
  1.13
  1.18
  1.18
  1.22
  1.21
  1.19
  1.20
  1.25
  1.20
  1.20
  1.20
  1.20
  1.21
  1.19
  1.20
  1.21
  1.23
  1.24
  1.28
  1.26
  1.21
  1.19
  1.17
  1.21
  1.25
  1.25
  1.20
  1.21
  1.24
  1.22
  1.26
  1.25
  1.27
  1.23
  1.21
  1.24
  1.27
  1.17
  1.15
  1.17
  1.17
  1.14
  1.15
  1.19
  1.15
  1.13
  1.20
  1.15
  1.20
  1.18
  1.16
  1.21
  1.23
  1.21
  1.16
  1.20
  1.15
  1.19
  1.16
  1.20
  1.13
  1.11
  1.13
  1.17
  1.16
  1.20
  1.12
  1.15
  1.16
  1.16
  1.17
  1.17
  1.16
  1.11
  1.22
  1.22
  1.19
  1.16
  1.18
  1.20
  1.12
  1.19
  1.14
  1.20
  1.14
  1.19
  1.15
  1.17
  1.19
  1.16
  1.14
  1.16
  1.19
  1.17
  1.16
  1.16
  1.21
  1.18
  1.12
  1.22
  1.18
  1.20
  1.17
  1.17
  1.16
  1.15
  1.17
  1.15
  1.21
  1.22
  1.13
  1.16
  1.17
  1.19
  1.14
  1.16
  1.16
  1.15
  1.14
  1.18
  1.12
  1.15
  1.19
  1.15
  1.15
  1.21
  1.16
  1.16
  1.16
  1.18
  1.17
  1.14
  1.17
  1.14
  1.17
  1.20
  1.14
  1.17
  1.14
  1.16
  1.21
  1.20
  1.26
  1.26
  1.19
  1.24
  1.17
  1.28
  1.15
  1.20
  1.16
  1.18
  1.18
  1.18
  1.14
  1.14
  1.14
  1.16
  1.16
  1.18
  1.19
  1.21
  1.14
  1.15
  1.13
  1.14
  1.13
  1.11
  1.10
  1.20
  1.48
  1.45
  1.36
  1.46
  1.38
  1.37
  1.33
  1.36
  1.26
  1.29
  1.28
  1.27
  1.34
  1.29
  1.26
  1.27
  1.36
  1.30
  1.31
  1.28
  1.27
  1.36
  1.43
  1.39
  1.39
  1.42
  1.37
  1.41
  1.14
  1.40
  1.10
  1.15
  1.08
  1.47
  1.04
  1.08
  1.11
  1.06
  1.10
  1.09
  1.07
  1.11
  1.15
  1.16
  1.17
  1.21
  1.18
  1.24
  1.22
  1.18
  1.21
  1.22
  1.22
  1.18
  1.22
  1.11
  1.16
  1.13
  1.10
  1.11
  1.09
  1.06
  1.15
  1.06
  1.08
  1.04
  1.13
  1.14
  1.12
  1.16
  1.14
  1.14
  1.15
  1.12
  1.11
  1.16
  1.15
  1.12
  1.12
  1.12
  1.17
  1.16
  1.17
  1.21
  1.19
  1.23
  1.22
  1.19
  1.19
  1.26
  1.21
  1.20
  1.26
  1.24
  1.24
  1.23
  1.33
  1.23
  1.19
  1.29
  1.26
  1.32
  1.23
  1.25
  1.30
  1.35
  1.18
  1.13
  1.13
  1.09
  1.11
  1.16
  1.12
  1.10
  1.13
  1.13
  1.18
  1.15
  1.15
  1.14
  1.15
  1.16
  1.14
  1.17
  1.09
  1.15
  1.15
  1.19
  1.14
  1.15
  1.11
  1.15
  1.18
  1.17
  1.19
  1.16
  1.10
  1.09
  1.19
  1.16
  1.10
  1.12
  1.11
  1.14
  1.10
  1.15
  1.12
  1.14
  1.12
  1.15
  1.21
  1.12
  1.07
  1.13
  1.14
  1.17
  1.13
  1.10
  1.16
  1.18
  1.18
  1.10
  1.12
  1.16
  1.13
  1.13
  1.19
  1.13
  1.14
  1.15
  1.18
  1.16
  1.12
  1.18
  1.10
  1.16
  1.14
  1.15
  1.11
  1.14
  1.15
  1.11
  1.18
  1.15
  1.10
  1.15
  1.15
  1.12
  1.18
  1.15
  1.18
  1.20
  1.11
  1.19
  1.11
  1.14
  1.19
  1.14
  1.17
  1.14
  1.21
  1.17
  1.21
  1.15
  1.13
  1.19
  1.39
  1.14
  1.13
  1.15
  1.13
  1.19
  1.19
  1.16
  1.18
  1.13
  1.13
  1.19
  1.14